<?xml version="1.0" encoding="UTF-8"?>
<svg width="14px" height="14px" viewBox="0 0 14 14" version="1.1" xmlns="http://www.w3.org/2000/svg" xmlns:xlink="http://www.w3.org/1999/xlink">
    <!-- Generator: Sketch 52.6 (67491) - http://www.bohemiancoding.com/sketch -->
    <title>24px copy 3</title>
    <desc>Created with Sketch.</desc>
    <g id="Page-1" stroke="none" stroke-width="1" fill="none" fill-rule="evenodd">
        <g id="Događaj---single" transform="translate(-231.000000, -823.000000)">
            <g id="Group-2" transform="translate(230.000000, 819.000000)">
                <g id="24px-copy-3" transform="translate(0.000000, 2.000000)">
                    <path d="M7.993,2 C4.129,2 1,5.136 1,9 C1,12.864 4.129,16 7.993,16 C11.864,16 15,12.864 15,9 C15,5.136 11.864,2 7.993,2 Z M8,14.6 C4.906,14.6 2.4,12.094 2.4,9 C2.4,5.906 4.906,3.4 8,3.4 C11.094,3.4 13.6,5.906 13.6,9 C13.6,12.094 11.094,14.6 8,14.6 Z" id="Shape" fill="#989898" fill-rule="nonzero"></path>
                    <polygon id="Path" points="0 0 17 0 17 6.18823242 17 17 0 17"></polygon>
                    <polygon id="Path" fill="#989898" points="9 5 8 5 8 8.93442623 11.5 11 12 10.1934426 9 8.44262295"></polygon>
                </g>
            </g>
        </g>
    </g>
</svg>